18100 = {
	name = "Waddaah Khalil"
	country = XYM
	type = air
	skill = 1
	max_skill = 2
	loyalty = 0.26
	picture = l61045
	add_trait = night_flyer
	add_trait = superior_air_tactician
	history = {
		1930.1.1 = { rank = 1 }
	}
}
18101 = {
	name = "Tawheed Rad"
	country = XYM
	type = sea
	skill = 0
	max_skill = 1
	loyalty = 0.97
	picture = 900203
	add_trait = superior_tactician
	add_trait = seawolf
	history = {
		1930.1.1 = { rank = 1 }
		1936.1.1 = { rank = 2 }
	}
}
18102 = {
	name = "Safwaan Edris"
	country = XYM
	type = land
	skill = 1
	max_skill = 1
	loyalty = 0.5
	picture = l320014
	add_trait = logistics_wizard
	history = {
		1930.1.1 = { rank = 1 }
	}
}
18103 = {
	name = "Maa'iz Fayad"
	country = XYM
	type = sea
	skill = 2
	max_skill = 2
	loyalty = 0.57
	picture = l320018
	add_trait = old_guard
	history = {
		1930.1.1 = { rank = 1 }
	}
}
18104 = {
	name = "Khaalid Ghazi"
	country = XYM
	type = sea
	skill = 0
	max_skill = 2
	loyalty = 0.56
	picture = l440028
	add_trait = spotter
	history = {
		1930.1.1 = { rank = 1 }
		1946.1.1 = { rank = 2 }
	}
}
18105 = {
	name = "Faatin Shahidi"
	country = XYM
	type = sea
	skill = 2
	max_skill = 2
	loyalty = 0.26
	picture = l440030
	add_trait = seawolf
	add_trait = blockade_runner
	history = {
		1930.1.1 = { rank = 1 }
	}
}
18106 = {
	name = "Abbaad Pasha"
	country = XYM
	type = air
	skill = 1
	max_skill = 1
	loyalty = 0.88
	picture = l440010
	add_trait = superior_air_tactician
	history = {
		1930.1.1 = { rank = 1 }
	}
}
18107 = {
	name = "Ubaida Rahaman"
	country = XYM
	type = air
	skill = 2
	max_skill = 2
	loyalty = 0.52
	picture = 900200
	add_trait = carpet_bomber
	history = {
		1930.1.1 = { rank = 1 }
	}
}
18108 = {
	name = "Saleel Ahmadi"
	country = XYM
	type = sea
	skill = 2
	max_skill = 2
	loyalty = 0.54
	picture = l440039
	add_trait = old_guard
	add_trait = blockade_runner
	history = {
		1930.1.1 = { rank = 1 }
	}
}
18109 = {
	name = "Abdul Wadood Zakaria"
	country = XYM
	type = land
	skill = 2
	max_skill = 2
	loyalty = 0.09
	picture = l290003
	add_trait = improvisation
	history = {
		1930.1.1 = { rank = 1 }
	}
}
18110 = {
	name = "Abbaas Salama"
	country = XYM
	type = land
	skill = 1
	max_skill = 2
	loyalty = 0.7
	picture = 900202
	add_trait = ranger
	add_trait = hill_fighter
	history = {
		1930.1.1 = { rank = 1 }
		1947.1.1 = { rank = 2 }
	}
}
18111 = {
	name = "Amaan Yousuf"
	country = XYM
	type = sea
	skill = 1
	max_skill = 1
	loyalty = 0.97
	picture = l290028
	add_trait = spotter
	add_trait = superior_tactician
	history = {
		1930.1.1 = { rank = 1 }
	}
}
18112 = {
	name = "Bakar Jaffer"
	country = XYM
	type = land
	skill = 2
	max_skill = 2
	loyalty = 1.00
	picture = 900209
	add_trait = old_guard
	history = {
		1930.1.1 = { rank = 1 }
	}
}
18113 = {
	name = "Maaiz Mansur"
	country = XYM
	type = land
	skill = 1
	max_skill = 2
	loyalty = 0.54
	picture = l440005
	add_trait = marine
	add_trait = logistics_wizard
	history = {
		1930.1.1 = { rank = 1 }
	}
}
18114 = {
	name = "Ghaamid Hashemi"
	country = XYM
	type = sea
	skill = 1
	max_skill = 2
	loyalty = 0.96
	picture = l300023
	add_trait = blockade_runner
	history = {
		1930.1.1 = { rank = 1 }
	}
}
18115 = {
	name = "Suhaib Saab"
	country = XYM
	type = sea
	skill = 2
	max_skill = 2
	loyalty = 0.17
	picture = l290016
	add_trait = seawolf
	history = {
		1930.1.1 = { rank = 1 }
		1949.1.1 = { rank = 2 }
	}
}
18116 = {
	name = "Munsif Saleem"
	country = XYM
	type = sea
	skill = 0
	max_skill = 2
	loyalty = 0.66
	picture = l300020
	add_trait = seawolf
	history = {
		1930.1.1 = { rank = 1 }
		1949.1.1 = { rank = 2 }
	}
}
18117 = {
	name = "Humaid Iqbal"
	country = XYM
	type = sea
	skill = 1
	max_skill = 1
	loyalty = 0.89
	picture = l300013
	add_trait = old_guard
	add_trait = spotter
	history = {
		1930.1.1 = { rank = 1 }
		1943.1.1 = { rank = 2 }
	}
}
18118 = {
	name = "Jaasir Ramadan"
	country = XYM
	type = air
	skill = 1
	max_skill = 2
	loyalty = 0.15
	picture = l290006
	add_trait = superior_air_tactician
	add_trait = fleet_destroyer
	history = {
		1930.1.1 = { rank = 1 }
	}
}
18119 = {
	name = "Rushdi Mansoor"
	country = XYM
	type = land
	skill = 2
	max_skill = 2
	loyalty = 0.84
	picture = l320008
	add_trait = offensive_doctrine
	add_trait = defensive_doctrine
	history = {
		1930.1.1 = { rank = 1 }
	}
}
18120 = {
	name = "Faalih Bina"
	country = XYM
	type = land
	skill = 2
	max_skill = 2
	loyalty = 0.4
	picture = l290027
	add_trait = landlubber
	history = {
		1930.1.1 = { rank = 1 }
	}
}
18121 = {
	name = "Aayid Bashara"
	country = XYM
	type = sea
	skill = 1
	max_skill = 2
	loyalty = 0.28
	picture = l61009
	add_trait = old_guard
	history = {
		1930.1.1 = { rank = 1 }
		1940.1.1 = { rank = 2 }
	}
}
18122 = {
	name = "Siddeeqi Rafiq"
	country = XYM
	type = sea
	skill = 0
	max_skill = 0
	loyalty = 0.95
	picture = l61038
	add_trait = old_guard
	history = {
		1930.1.1 = { rank = 1 }
	}
}
18123 = {
	name = "Zuraara Dawood"
	country = XYM
	type = sea
	skill = 1
	max_skill = 2
	loyalty = 0.26
	picture = l61023
	add_trait = spotter
	add_trait = blockade_runner
	history = {
		1930.1.1 = { rank = 1 }
	}
}
18124 = {
	name = "Sufyaan Demian"
	country = XYM
	type = air
	skill = 0
	max_skill = 0
	loyalty = 0.54
	picture = l290032
	add_trait = night_flyer
	add_trait = fleet_destroyer
	history = {
		1930.1.1 = { rank = 1 }
		1936.1.1 = { rank = 2 }
	}
}
18125 = {
	name = "Nadheer Bilal"
	country = XYM
	type = air
	skill = 2
	max_skill = 2
	loyalty = 0.74
	picture = l440013
	add_trait = old_guard
	add_trait = night_flyer
	history = {
		1930.1.1 = { rank = 1 }
		1952.1.1 = { rank = 2 }
	}
}
18126 = {
	name = "Abbaas Salim"
	country = XYM
	type = sea
	skill = 2
	max_skill = 2
	loyalty = 0.69
	picture = l61047
	add_trait = old_guard
	add_trait = spotter
	history = {
		1930.1.1 = { rank = 1 }
	}
}
18127 = {
	name = "Asghar Guler"
	country = XYM
	type = sea
	skill = 2
	max_skill = 2
	loyalty = 0.1
	picture = l440016
	add_trait = seawolf
	history = {
		1930.1.1 = { rank = 1 }
	}
}
18128 = {
	name = "Sufyaan Laham"
	country = XYM
	type = air
	skill = 1
	max_skill = 2
	loyalty = 0.27
	picture = 900202
	add_trait = night_flyer
	add_trait = superior_air_tactician
	history = {
		1930.1.1 = { rank = 1 }
	}
}
18129 = {
	name = "Luwai Eid"
	country = XYM
	type = land
	skill = 2
	max_skill = 2
	loyalty = 0.73
	picture = l61026
	add_trait = mountaineer
	add_trait = offensive_doctrine
	history = {
		1930.1.1 = { rank = 1 }
		1940.1.1 = { rank = 2 }
	}
}
18130 = {
	name = "Mushtaaq Zia"
	country = XYM
	type = sea
	skill = 1
	max_skill = 2
	loyalty = 0.66
	picture = 900205
	add_trait = seawolf
	add_trait = blockade_runner
	history = {
		1930.1.1 = { rank = 1 }
		1948.1.1 = { rank = 2 }
	}
}
18131 = {
	name = "Hamza Majid"
	country = XYM
	type = sea
	skill = 1
	max_skill = 2
	loyalty = 0.37
	picture = l320021
	add_trait = superior_tactician
	history = {
		1930.1.1 = { rank = 1 }
		1941.1.1 = { rank = 2 }
	}
}
18132 = {
	name = "Mustaba Kaleel"
	country = XYM
	type = sea
	skill = 0
	max_skill = 2
	loyalty = 0.83
	picture = 900205
	add_trait = blockade_runner
	history = {
		1930.1.1 = { rank = 1 }
		1951.1.1 = { rank = 2 }
	}
}
18133 = {
	name = "Annnees Bey"
	country = XYM
	type = air
	skill = 0
	max_skill = 1
	loyalty = 0.04
	picture = l290010
	add_trait = old_guard
	history = {
		1930.1.1 = { rank = 1 }
		1939.1.1 = { rank = 2 }
	}
}
18134 = {
	name = "Abdur Rasheed Abdul"
	country = XYM
	type = sea
	skill = 2
	max_skill = 2
	loyalty = 0.3
	picture = l61001
	add_trait = old_guard
	history = {
		1930.1.1 = { rank = 1 }
		1944.1.1 = { rank = 2 }
	}
}
18135 = {
	name = "Humaid Farooqui"
	country = XYM
	type = land
	skill = 1
	max_skill = 2
	loyalty = 0.98
	picture = l320011
	add_trait = old_guard
	history = {
		1930.1.1 = { rank = 1 }
	}
}
18136 = {
	name = "Shaheed Moghaddam"
	country = XYM
	type = land
	skill = 1
	max_skill = 2
	loyalty = 0.31
	picture = l320018
	add_trait = assaulter
	add_trait = marine
	history = {
		1930.1.1 = { rank = 1 }
		1948.1.1 = { rank = 2 }
	}
}
18137 = {
	name = "Uthmaa N Zaki"
	country = XYM
	type = air
	skill = 1
	max_skill = 2
	loyalty = 0.8
	picture = l300011
	add_trait = night_flyer
	history = {
		1930.1.1 = { rank = 1 }
		1954.1.1 = { rank = 2 }
	}
}
18138 = {
	name = "Rifat Rafiq"
	country = XYM
	type = land
	skill = 0
	max_skill = 0
	loyalty = 0.98
	picture = l61052
	add_trait = old_guard
	history = {
		1930.1.1 = { rank = 1 }
	}
}
18139 = {
	name = "Arkaan Morad"
	country = XYM
	type = sea
	skill = 2
	max_skill = 2
	loyalty = 0.02
	picture = l61003
	add_trait = seawolf
	add_trait = spotter
	history = {
		1930.1.1 = { rank = 1 }
		1939.1.1 = { rank = 2 }
	}
}
18140 = {
	name = "Ihaab Toure"
	country = XYM
	type = air
	skill = 0
	max_skill = 2
	loyalty = 0.68
	picture = l440021
	add_trait = carpet_bomber
	add_trait = night_flyer
	history = {
		1930.1.1 = { rank = 1 }
	}
}
18141 = {
	name = "Ikram Turay"
	country = XYM
	type = sea
	skill = 0
	max_skill = 0
	loyalty = 0.85
	picture = l290004
	add_trait = spotter
	history = {
		1930.1.1 = { rank = 1 }
		1938.1.1 = { rank = 2 }
	}
}
18142 = {
	name = "Fawz Jamail"
	country = XYM
	type = air
	skill = 1
	max_skill = 1
	loyalty = 0.42
	picture = l440039
	add_trait = old_guard
	add_trait = night_flyer
	history = {
		1930.1.1 = { rank = 1 }
		1948.1.1 = { rank = 2 }
	}
}
18143 = {
	name = "Abdus Salam Jama"
	country = XYM
	type = land
	skill = 1
	max_skill = 2
	loyalty = 0.92
	picture = l290006
	add_trait = old_guard
	add_trait = ranger
	history = {
		1930.1.1 = { rank = 1 }
	}
}
18144 = {
	name = "Jiyaad Hatem"
	country = XYM
	type = sea
	skill = 0
	max_skill = 2
	loyalty = 0.67
	picture = l61036
	add_trait = seawolf
	add_trait = blockade_runner
	history = {
		1930.1.1 = { rank = 1 }
		1951.1.1 = { rank = 2 }
	}
}
18145 = {
	name = "Tawfeeq Farha"
	country = XYM
	type = sea
	skill = 0
	max_skill = 2
	loyalty = 0.02
	picture = l290029
	add_trait = seawolf
	add_trait = spotter
	history = {
		1930.1.1 = { rank = 1 }
	}
}
18146 = {
	name = "Katheer Haidar"
	country = XYM
	type = sea
	skill = 1
	max_skill = 2
	loyalty = 0.27
	picture = l61028
	add_trait = blockade_runner
	add_trait = superior_tactician
	history = {
		1930.1.1 = { rank = 1 }
		1949.1.1 = { rank = 2 }
	}
}
18147 = {
	name = "Nashat Kamal"
	country = XYM
	type = land
	skill = 2
	max_skill = 2
	loyalty = 0.94
	picture = 900208
	add_trait = old_guard
	history = {
		1930.1.1 = { rank = 1 }
		1951.1.1 = { rank = 2 }
	}
}
18148 = {
	name = "Bassaam Haque"
	country = XYM
	type = air
	skill = 0
	max_skill = 1
	loyalty = 0.53
	picture = l61042
	add_trait = superior_air_tactician
	add_trait = fleet_destroyer
	history = {
		1930.1.1 = { rank = 1 }
	}
}
18149 = {
	name = "Nazmi Iqbal"
	country = XYM
	type = sea
	skill = 0
	max_skill = 0
	loyalty = 0.86
	picture = l320016
	add_trait = old_guard
	history = {
		1930.1.1 = { rank = 1 }
	}
}
18150 = {
	name = "Fateen Sulaiman"
	country = XYM
	type = air
	skill = 1
	max_skill = 1
	loyalty = 0.4
	picture = l440032
	add_trait = tank_buster
	add_trait = fleet_destroyer
	history = {
		1930.1.1 = { rank = 1 }
	}
}
18151 = {
	name = "Jafar Ibrahim"
	country = XYM
	type = land
	skill = 2
	max_skill = 2
	loyalty = 0.7
	picture = l290013
	add_trait = hill_fighter
	history = {
		1930.1.1 = { rank = 1 }
	}
}
18152 = {
	name = "Sabri Abraham"
	country = XYM
	type = air
	skill = 1
	max_skill = 2
	loyalty = 0.89
	picture = l320014
	add_trait = fleet_destroyer
	add_trait = tank_buster
	history = {
		1930.1.1 = { rank = 1 }
	}
}
18153 = {
	name = "Muaaid Sham"
	country = XYM
	type = land
	skill = 2
	max_skill = 2
	loyalty = 0.48
	picture = l61026
	add_trait = logistics_wizard
	history = {
		1930.1.1 = { rank = 1 }
		1954.1.1 = { rank = 2 }
	}
}
18154 = {
	name = "Zaki Saadeh"
	country = XYM
	type = land
	skill = 1
	max_skill = 1
	loyalty = 0.14
	picture = l320012
	add_trait = hill_fighter
	add_trait = learners_will
	history = {
		1930.1.1 = { rank = 1 }
	}
}
18155 = {
	name = "Waatiq Mahdi"
	country = XYM
	type = land
	skill = 1
	max_skill = 1
	loyalty = 0.46
	picture = l290025
	add_trait = versatile
	add_trait = hard_defender
	history = {
		1930.1.1 = { rank = 1 }
		1936.1.1 = { rank = 2 }
	}
}
18156 = {
	name = "Saleel Mohamed"
	country = XYM
	type = sea
	skill = 0
	max_skill = 2
	loyalty = 0.34
	picture = l290017
	add_trait = blockade_runner
	history = {
		1930.1.1 = { rank = 1 }
	}
}
18157 = {
	name = "Raaji Bahri"
	country = XYM
	type = land
	skill = 2
	max_skill = 2
	loyalty = 0.25
	picture = l440030
	add_trait = old_guard
	history = {
		1930.1.1 = { rank = 1 }
	}
}
18158 = {
	name = "Baaqir Salman"
	country = XYM
	type = land
	skill = 2
	max_skill = 2
	loyalty = 0.87
	picture = l300003
	add_trait = panzer_leader
	history = {
		1930.1.1 = { rank = 1 }
	}
}
18159 = {
	name = "Aayid Hakeem"
	country = XYM
	type = sea
	skill = 1
	max_skill = 2
	loyalty = 0.69
	picture = l290001
	add_trait = spotter
	add_trait = seawolf
	history = {
		1930.1.1 = { rank = 1 }
	}
}
18160 = {
	name = "Turki Jafri"
	country = XYM
	type = land
	skill = 0
	max_skill = 2
	loyalty = 0.27
	picture = l61004
	add_trait = improvisation
	history = {
		1930.1.1 = { rank = 1 }
	}
}
18161 = {
	name = "Quraish Wahab"
	country = XYM
	type = land
	skill = 2
	max_skill = 2
	loyalty = 0.79
	picture = l61054
	add_trait = landing_specialist
	add_trait = hard_defender
	history = {
		1930.1.1 = { rank = 1 }
		1936.1.1 = { rank = 2 }
	}
}
18162 = {
	name = "Silmi Kamali"
	country = XYM
	type = sea
	skill = 1
	max_skill = 1
	loyalty = 0.65
	picture = l61059
	add_trait = old_guard
	history = {
		1930.1.1 = { rank = 1 }
		1948.1.1 = { rank = 2 }
	}
}
18163 = {
	name = "Abdul Azeez Attar"
	country = XYM
	type = sea
	skill = 2
	max_skill = 2
	picture = l61034
	add_trait = seawolf
	history = {
		1930.1.1 = { rank = 1 }
	}
}
18164 = {
	name = "Amaan Salehi"
	country = XYM
	type = sea
	skill = 1
	max_skill = 2
	loyalty = 0.15
	picture = 900204
	add_trait = superior_tactician
	add_trait = blockade_runner
	history = {
		1930.1.1 = { rank = 1 }
	}
}
18165 = {
	name = "Aamir Hamdan"
	country = XYM
	type = air
	skill = 1
	max_skill = 2
	loyalty = 0.22
	picture = l440008
	add_trait = tank_buster
	add_trait = carpet_bomber
	history = {
		1930.1.1 = { rank = 1 }
		1944.1.1 = { rank = 2 }
	}
}
18166 = {
	name = "Faarooq Moussa"
	country = XYM
	type = sea
	skill = 2
	max_skill = 2
	loyalty = 0.93
	picture = l290020
	add_trait = blockade_runner
	history = {
		1930.1.1 = { rank = 1 }
	}
}
18167 = {
	name = "Muslih Haider"
	country = XYM
	type = air
	skill = 2
	max_skill = 2
	loyalty = 0.19
	picture = l61049
	add_trait = superior_air_tactician
	add_trait = fleet_destroyer
	history = {
		1930.1.1 = { rank = 1 }
		1952.1.1 = { rank = 2 }
	}
}
18168 = {
	name = "Tameem Mannan"
	country = XYM
	type = sea
	skill = 2
	max_skill = 2
	loyalty = 0.18
	picture = l61026
	add_trait = seawolf
	history = {
		1930.1.1 = { rank = 1 }
	}
}
18169 = {
	name = "Nizaar Amara"
	country = XYM
	type = air
	skill = 1
	max_skill = 1
	loyalty = 0.88
	picture = l61042
	add_trait = fleet_destroyer
	add_trait = night_flyer
	history = {
		1930.1.1 = { rank = 1 }
	}
}
18170 = {
	name = "Shaahir Abdo"
	country = XYM
	type = air
	skill = 0
	max_skill = 2
	loyalty = 0.28
	picture = l440036
	add_trait = carpet_bomber
	add_trait = night_flyer
	history = {
		1930.1.1 = { rank = 1 }
		1951.1.1 = { rank = 2 }
	}
}
18171 = {
	name = "Hanlala Mohiuddin"
	country = XYM
	type = air
	skill = 1
	max_skill = 1
	loyalty = 0.23
	picture = 900205
	add_trait = night_flyer
	history = {
		1930.1.1 = { rank = 1 }
	}
}
18172 = {
	name = "Muneer Islam"
	country = XYM
	type = sea
	skill = 1
	max_skill = 1
	loyalty = 0.43
	picture = l300021
	add_trait = seawolf
	history = {
		1930.1.1 = { rank = 1 }
	}
}
18173 = {
	name = "Rajab Shabazz"
	country = XYM
	type = air
	skill = 2
	max_skill = 2
	loyalty = 0.04
	picture = l320001
	add_trait = night_flyer
	add_trait = fleet_destroyer
	history = {
		1930.1.1 = { rank = 1 }
	}
}
18174 = {
	name = "Daamir Mahdavi"
	country = XYM
	type = sea
	skill = 1
	max_skill = 1
	loyalty = 0.81
	picture = l61026
	add_trait = old_guard
	add_trait = seawolf
	history = {
		1930.1.1 = { rank = 1 }
		1939.1.1 = { rank = 2 }
	}
}
18175 = {
	name = "Rajab Selim"
	country = XYM
	type = land
	skill = 2
	max_skill = 2
	loyalty = 0.37
	picture = l290009
	add_trait = assaulter
	add_trait = offensive_doctrine
	history = {
		1930.1.1 = { rank = 1 }
		1951.1.1 = { rank = 2 }
	}
}
18176 = {
	name = "Ghaamid Fawaz"
	country = XYM
	type = land
	skill = 0
	max_skill = 1
	loyalty = 0.2
	picture = 900206
	add_trait = frontline_soldier
	history = {
		1930.1.1 = { rank = 1 }
	}
}
18177 = {
	name = "Abdul Qayyoom Asad"
	country = XYM
	type = air
	skill = 0
	max_skill = 1
	loyalty = 0.91
	picture = l6102
	add_trait = superior_air_tactician
	add_trait = fleet_destroyer
	history = {
		1930.1.1 = { rank = 1 }
		1940.1.1 = { rank = 2 }
	}
}
18178 = {
	name = "Badraan Javed"
	country = XYM
	type = land
	skill = 2
	max_skill = 2
	loyalty = 0.38
	picture = l61048
	add_trait = logistics_wizard
	history = {
		1930.1.1 = { rank = 1 }
		1939.1.1 = { rank = 2 }
	}
}
18179 = {
	name = "Ameen Nazir"
	country = XYM
	type = sea
	skill = 0
	max_skill = 2
	loyalty = 0.14
	picture = blackice-sea
	add_trait = spotter
	add_trait = blockade_runner
	history = {
		1930.1.1 = { rank = 1 }
	}
}
18180 = {
	name = "Aakif Emami"
	country = XYM
	type = sea
	skill = 2
	max_skill = 2
	loyalty = 0.41
	picture = l61007
	add_trait = blockade_runner
	history = {
		1930.1.1 = { rank = 1 }
		1938.1.1 = { rank = 2 }
	}
}
18181 = {
	name = "Muneeb Azzam"
	country = XYM
	type = land
	skill = 1
	max_skill = 1
	loyalty = 0.17
	picture = l61036
	add_trait = logistics_wizard
	history = {
		1930.1.1 = { rank = 1 }
	}
}
18182 = {
	name = "Faaris Hammad"
	country = XYM
	type = air
	skill = 2
	max_skill = 2
	loyalty = 0.08
	picture = l440034
	add_trait = night_flyer
	history = {
		1930.1.1 = { rank = 1 }
	}
}
18183 = {
	name = "Turki Azer"
	country = XYM
	type = air
	skill = 0
	max_skill = 2
	loyalty = 0.65
	picture = l440013
	add_trait = tank_buster
	history = {
		1930.1.1 = { rank = 1 }
		1945.1.1 = { rank = 2 }
	}
}
18184 = {
	name = "Waail Zakaria"
	country = XYM
	type = sea
	skill = 1
	max_skill = 1
	loyalty = 0.35
	picture = l290022
	add_trait = spotter
	add_trait = superior_tactician
	history = {
		1930.1.1 = { rank = 1 }
		1952.1.1 = { rank = 2 }
	}
}
18185 = {
	name = "Tareef Nazir"
	country = XYM
	type = land
	skill = 1
	max_skill = 2
	loyalty = 0.91
	picture = l61043
	add_trait = old_guard
	history = {
		1930.1.1 = { rank = 1 }
	}
}
18186 = {
	name = "Zubair Akram"
	country = XYM
	type = land
	skill = 1
	max_skill = 1
	loyalty = 0.33
	picture = 900204
	add_trait = logistics_wizard
	history = {
		1930.1.1 = { rank = 1 }
		1952.1.1 = { rank = 2 }
	}
}
18187 = {
	name = "Mutlaq Srour"
	country = XYM
	type = air
	skill = 0
	max_skill = 1
	loyalty = 0.98
	picture = l290030
	add_trait = old_guard
	add_trait = superior_air_tactician
	history = {
		1930.1.1 = { rank = 1 }
		1936.1.1 = { rank = 2 }
	}
}
18188 = {
	name = "Maahir Bacchus"
	country = XYM
	type = sea
	skill = 2
	max_skill = 2
	loyalty = 0.18
	picture = l440036
	add_trait = old_guard
	add_trait = spotter
	history = {
		1930.1.1 = { rank = 1 }
		1940.1.1 = { rank = 2 }
	}
}
18189 = {
	name = "Abdur Raqeeb Yousef"
	country = XYM
	type = air
	skill = 2
	max_skill = 2
	loyalty = 0.03
	picture = l440002
	add_trait = tank_buster
	history = {
		1930.1.1 = { rank = 1 }
	}
}
18190 = {
	name = "Aayid Yousuf"
	country = XYM
	type = air
	skill = 0
	max_skill = 2
	loyalty = 0.21
	picture = l300011
	add_trait = old_guard
	history = {
		1930.1.1 = { rank = 1 }
	}
}
18191 = {
	name = "Hasan Mitri"
	country = XYM
	type = land
	skill = 2
	max_skill = 2
	loyalty = 0.66
	picture = l61026
	add_trait = trainer
	add_trait = ranger
	history = {
		1930.1.1 = { rank = 1 }
	}
}
18192 = {
	name = "Asad Hares"
	country = XYM
	type = sea
	skill = 2
	max_skill = 2
	loyalty = 0.2
	picture = 900205
	add_trait = seawolf
	history = {
		1930.1.1 = { rank = 1 }
		1941.1.1 = { rank = 2 }
	}
}
18193 = {
	name = "Amaanullah Safar"
	country = XYM
	type = land
	skill = 2
	max_skill = 2
	loyalty = 0.52
	picture = l61039
	add_trait = mountaineer
	add_trait = learners_will
	history = {
		1930.1.1 = { rank = 1 }
		1950.1.1 = { rank = 2 }
	}
}
18194 = {
	name = "Haamid Akhter"
	country = XYM
	type = land
	skill = 1
	max_skill = 1
	loyalty = 0.47
	picture = l61059
	add_trait = ranger
	history = {
		1930.1.1 = { rank = 1 }
	}
}
18195 = {
	name = "Ruwaid Matar"
	country = XYM
	type = land
	skill = 2
	max_skill = 2
	loyalty = 0.7
	picture = l440028
	add_trait = assaulter
	history = {
		1930.1.1 = { rank = 1 }
		1949.1.1 = { rank = 2 }
	}
}
18196 = {
	name = "Taaj Rahaman"
	country = XYM
	type = air
	skill = 0
	max_skill = 1
	loyalty = 0.02
	picture = l290005
	add_trait = tank_buster
	add_trait = fleet_destroyer
	history = {
		1930.1.1 = { rank = 1 }
	}
}
18197 = {
	name = "Muthanna Azer"
	country = XYM
	type = sea
	skill = 1
	max_skill = 1
	loyalty = 0.33
	picture = l61026
	add_trait = seawolf
	add_trait = spotter
	history = {
		1930.1.1 = { rank = 1 }
		1936.1.1 = { rank = 2 }
	}
}
18198 = {
	name = "Faisal Hasan"
	country = XYM
	type = land
	skill = 0
	max_skill = 0
	loyalty = 0.39
	picture = 900208
	add_trait = ranger
	history = {
		1930.1.1 = { rank = 1 }
		1936.1.1 = { rank = 2 }
	}
}
18199 = {
	name = "Faisal Madani"
	country = XYM
	type = sea
	skill = 1
	max_skill = 2
	loyalty = 0.93
	picture = l300021
	add_trait = spotter
	history = {
		1930.1.1 = { rank = 1 }
	}
}
18200 = {
	name = "Iyaad Farha"
	country = XYM
	type = sea
	skill = 2
	max_skill = 2
	loyalty = 0.75
	picture = 900205
	add_trait = superior_tactician
	history = {
		1930.1.1 = { rank = 1 }
	}
}
18201 = {
	name = "Tayyib Abdulla"
	country = XYM
	type = sea
	skill = 1
	max_skill = 2
	loyalty = 0.04
	picture = l61039
	add_trait = blockade_runner
	add_trait = seawolf
	history = {
		1930.1.1 = { rank = 1 }
		1943.1.1 = { rank = 2 }
	}
}
18202 = {
	name = "Saajid Badie"
	country = XYM
	type = sea
	skill = 2
	max_skill = 2
	loyalty = 0.1
	picture = l3000
	add_trait = spotter
	history = {
		1930.1.1 = { rank = 1 }
	}
}
18203 = {
	name = "Mutlaq Radi"
	country = XYM
	type = land
	skill = 2
	max_skill = 2
	loyalty = 0.59
	picture = blackice-air
	add_trait = jungle_rat
	add_trait = offensive_doctrine
	history = {
		1930.1.1 = { rank = 1 }
		1939.1.1 = { rank = 2 }
	}
}
18204 = {
	name = "Shaahir Jafri"
	country = XYM
	type = land
	skill = 0
	max_skill = 2
	loyalty = 0.55
	picture = l61019
	add_trait = trickster
	history = {
		1930.1.1 = { rank = 1 }
	}
}
18205 = {
	name = "Hanlala Nour"
	country = XYM
	type = air
	skill = 1
	max_skill = 1
	loyalty = 0.82
	picture = l440023
	add_trait = carpet_bomber
	history = {
		1930.1.1 = { rank = 1 }
		1937.1.1 = { rank = 2 }
	}
}
18206 = {
	name = "Maisara Malik"
	country = XYM
	type = land
	skill = 1
	max_skill = 1
	loyalty = 0.4
	picture = l61019
	add_trait = fortress_buster
	add_trait = learners_will
	history = {
		1930.1.1 = { rank = 1 }
		1939.1.1 = { rank = 2 }
	}
}
18207 = {
	name = "Taqi Kamel"
	country = XYM
	type = air
	skill = 2
	max_skill = 2
	loyalty = 0.14
	picture = l290000
	add_trait = tank_buster
	add_trait = superior_air_tactician
	history = {
		1930.1.1 = { rank = 1 }
	}
}
18208 = {
	name = "Hanlala Vohra"
	country = XYM
	type = sea
	skill = 2
	max_skill = 2
	loyalty = 0.57
	picture = blackice-air
	add_trait = superior_tactician
	history = {
		1930.1.1 = { rank = 1 }
	}
}
18209 = {
	name = "Rajaa Baddour"
	country = XYM
	type = air
	skill = 1
	max_skill = 1
	loyalty = 0.37
	picture = l300019
	add_trait = fleet_destroyer
	history = {
		1930.1.1 = { rank = 1 }
		1947.1.1 = { rank = 2 }
	}
}
18210 = {
	name = "Faaris Eid"
	country = XYM
	type = land
	skill = 2
	max_skill = 2
	loyalty = 0.52
	picture = l290016
	add_trait = learners_will
	add_trait = trickster
	history = {
		1930.1.1 = { rank = 1 }
	}
}
18211 = {
	name = "Jaad Hakeem"
	country = XYM
	type = sea
	skill = 2
	max_skill = 2
	loyalty = 0.45
	picture = l300024
	add_trait = superior_tactician
	add_trait = seawolf
	history = {
		1930.1.1 = { rank = 1 }
	}
}
18212 = {
	name = "Afeef Ahmed"
	country = XYM
	type = land
	skill = 2
	max_skill = 2
	loyalty = 0.3
	picture = l61003
	add_trait = marine
	history = {
		1930.1.1 = { rank = 1 }
	}
}
18213 = {
	name = "Maahir Ali"
	country = XYM
	type = land
	skill = 1
	max_skill = 2
	loyalty = 0.61
	picture = l300000
	add_trait = marine
	history = {
		1930.1.1 = { rank = 1 }
	}
}
18214 = {
	name = "Zakariyya Samara"
	country = XYM
	type = air
	skill = 1
	max_skill = 1
	loyalty = 0.8
	picture = l300022
	add_trait = superior_air_tactician
	history = {
		1930.1.1 = { rank = 1 }
		1953.1.1 = { rank = 2 }
	}
}
18215 = {
	name = "Ghaazi Mansouri"
	country = XYM
	type = sea
	skill = 2
	max_skill = 2
	loyalty = 0.5
	picture = l61028
	add_trait = superior_tactician
	add_trait = seawolf
	history = {
		1930.1.1 = { rank = 1 }
	}
}
18216 = {
	name = "Aslam Kazemi"
	country = XYM
	type = sea
	skill = 2
	max_skill = 2
	loyalty = 0.92
	picture = l300013
	add_trait = seawolf
	history = {
		1930.1.1 = { rank = 1 }
	}
}
18217 = {
	name = "Basheer Aydin"
	country = XYM
	type = land
	skill = 2
	max_skill = 2
	loyalty = 0.57
	picture = l320009
	add_trait = defensive_doctrine
	add_trait = commando
	history = {
		1930.1.1 = { rank = 1 }
		1948.1.1 = { rank = 2 }
	}
}
18218 = {
	name = "Yoosuf Salem"
	country = XYM
	type = land
	skill = 0
	max_skill = 1
	loyalty = 0.41
	picture = l440039
	add_trait = marine
	history = {
		1930.1.1 = { rank = 1 }
		1942.1.1 = { rank = 2 }
	}
}
18219 = {
	name = "Fat'hi Jabbour"
	country = XYM
	type = sea
	skill = 2
	max_skill = 2
	loyalty = 0.08
	picture = l290011
	add_trait = spotter
	history = {
		1930.1.1 = { rank = 1 }
		1946.1.1 = { rank = 2 }
	}
}
18220 = {
	name = "Umair Akram"
	country = XYM
	type = sea
	skill = 2
	max_skill = 2
	loyalty = 0.56
	picture = l440000
	add_trait = spotter
	add_trait = blockade_runner
	history = {
		1930.1.1 = { rank = 1 }
	}
}
18221 = {
	name = "Saif Ahmadi"
	country = XYM
	type = air
	skill = 1
	max_skill = 2
	loyalty = 0.17
	picture = l61051
	add_trait = night_flyer
	add_trait = superior_air_tactician
	history = {
		1930.1.1 = { rank = 1 }
		1938.1.1 = { rank = 2 }
	}
}
18222 = {
	name = "Jaasir Kaiser"
	country = XYM
	type = air
	skill = 0
	max_skill = 1
	loyalty = 0.41
	picture = l300007
	add_trait = night_flyer
	add_trait = fleet_destroyer
	history = {
		1930.1.1 = { rank = 1 }
		1954.1.1 = { rank = 2 }
	}
}
18223 = {
	name = "Rifat Saber"
	country = XYM
	type = land
	skill = 2
	max_skill = 2
	loyalty = 0.59
	picture = l300017
	add_trait = old_guard
	add_trait = versatile
	history = {
		1930.1.1 = { rank = 1 }
		1947.1.1 = { rank = 2 }
	}
}
18224 = {
	name = "Kamaaluddeen Iman"
	country = XYM
	type = sea
	skill = 0
	max_skill = 0
	loyalty = 0.04
	picture = l440024
	add_trait = old_guard
	history = {
		1930.1.1 = { rank = 1 }
		1947.1.1 = { rank = 2 }
	}
}
18225 = {
	name = "Fuaad Saab"
	country = XYM
	type = land
	skill = 1
	max_skill = 1
	loyalty = 0.02
	picture = l61030
	add_trait = fortress_buster
	add_trait = marine
	history = {
		1930.1.1 = { rank = 1 }
		1952.1.1 = { rank = 2 }
	}
}
18226 = {
	name = "Haarith Saad"
	country = XYM
	type = land
	skill = 0
	max_skill = 0
	picture = l61060
	add_trait = winter_specialist
	history = {
		1930.1.1 = { rank = 1 }
		1938.1.1 = { rank = 2 }
	}
}
18227 = {
	name = "Mashal Mohamed"
	country = XYM
	type = land
	skill = 2
	max_skill = 2
	loyalty = 0.99
	picture = l320014
	add_trait = frontline_soldier
	history = {
		1930.1.1 = { rank = 1 }
		1939.1.1 = { rank = 2 }
	}
}
18228 = {
	name = "Muslim Salama"
	country = XYM
	type = sea
	skill = 0
	max_skill = 2
	loyalty = 0.78
	picture = l320002
	add_trait = superior_tactician
	add_trait = blockade_runner
	history = {
		1930.1.1 = { rank = 1 }
		1948.1.1 = { rank = 2 }
	}
}
18229 = {
	name = "Zainuddeen Ali"
	country = XYM
	type = air
	skill = 2
	max_skill = 2
	loyalty = 0.59
	picture = l290025
	add_trait = night_flyer
	history = {
		1930.1.1 = { rank = 1 }
	}
}
18230 = {
	name = "Sufyaan Kaba"
	country = XYM
	type = sea
	skill = 0
	max_skill = 1
	loyalty = 0.84
	picture = 900200
	add_trait = superior_tactician
	add_trait = blockade_runner
	history = {
		1930.1.1 = { rank = 1 }
		1937.1.1 = { rank = 2 }
	}
}
18231 = {
	name = "Sabri Jabbour"
	country = XYM
	type = air
	skill = 0
	max_skill = 2
	loyalty = 0.18
	picture = l290031
	add_trait = superior_air_tactician
	history = {
		1930.1.1 = { rank = 1 }
	}
}
18232 = {
	name = "Aabdeen Rahman"
	country = XYM
	type = land
	skill = 0
	max_skill = 1
	loyalty = 0.1
	picture = l61008
	add_trait = frontline_soldier
	history = {
		1930.1.1 = { rank = 1 }
	}
}
18233 = {
	name = "Ismaeel Akbar"
	country = XYM
	type = air
	skill = 0
	max_skill = 2
	loyalty = 0.18
	picture = l440021
	add_trait = superior_air_tactician
	history = {
		1930.1.1 = { rank = 1 }
		1936.1.1 = { rank = 2 }
	}
}
18234 = {
	name = "Zubair Fahs"
	country = XYM
	type = sea
	skill = 1
	max_skill = 1
	loyalty = 0.29
	picture = l61054
	add_trait = blockade_runner
	history = {
		1930.1.1 = { rank = 1 }
	}
}
18235 = {
	name = "Tareef Taheri"
	country = XYM
	type = sea
	skill = 1
	max_skill = 1
	loyalty = 0.91
	picture = l61028
	add_trait = old_guard
	add_trait = superior_tactician
	history = {
		1930.1.1 = { rank = 1 }
		1945.1.1 = { rank = 2 }
	}
}
18236 = {
	name = "Mahuroos Rad"
	country = XYM
	type = land
	skill = 2
	max_skill = 2
	loyalty = 0.79
	picture = l440030
	add_trait = learners_will
	add_trait = landing_specialist
	history = {
		1930.1.1 = { rank = 1 }
	}
}
18237 = {
	name = "Ubaida Abdi"
	country = XYM
	type = sea
	skill = 2
	max_skill = 2
	loyalty = 0.37
	picture = l440034
	add_trait = seawolf
	history = {
		1930.1.1 = { rank = 1 }
		1946.1.1 = { rank = 2 }
	}
}
18238 = {
	name = "Nazmi Sesay"
	country = XYM
	type = land
	skill = 0
	max_skill = 2
	loyalty = 0.19
	picture = l61016
	add_trait = old_guard
	history = {
		1930.1.1 = { rank = 1 }
	}
}
18239 = {
	name = "Imraan Akram"
	country = XYM
	type = air
	skill = 1
	max_skill = 1
	loyalty = 0.42
	picture = l440014
	add_trait = night_flyer
	history = {
		1930.1.1 = { rank = 1 }
		1948.1.1 = { rank = 2 }
	}
}
18240 = {
	name = "Zufar Kamal"
	country = XYM
	type = land
	skill = 1
	max_skill = 2
	loyalty = 0.98
	picture = l290012
	add_trait = urban_assault_specialist
	history = {
		1930.1.1 = { rank = 1 }
		1952.1.1 = { rank = 2 }
	}
}
18241 = {
	name = "Abdul Fattaah Omar"
	country = XYM
	type = sea
	skill = 1
	max_skill = 1
	loyalty = 0.3
	picture = l61054
	add_trait = blockade_runner
	history = {
		1930.1.1 = { rank = 1 }
		1943.1.1 = { rank = 2 }
	}
}
18242 = {
	name = "Haafil Salameh"
	country = XYM
	type = sea
	skill = 2
	max_skill = 2
	loyalty = 0.79
	picture = l290029
	add_trait = old_guard
	history = {
		1930.1.1 = { rank = 1 }
	}
}
18243 = {
	name = "Mukarram Fayad"
	country = XYM
	type = air
	skill = 1
	max_skill = 2
	loyalty = 0.39
	picture = l300022
	add_trait = night_flyer
	history = {
		1930.1.1 = { rank = 1 }
		1948.1.1 = { rank = 2 }
	}
}
18244 = {
	name = "Ghaali Akram"
	country = XYM
	type = sea
	skill = 2
	max_skill = 2
	loyalty = 0.94
	picture = l300025
	add_trait = blockade_runner
	history = {
		1930.1.1 = { rank = 1 }
	}
}
18245 = {
	name = "Khairi Musa"
	country = XYM
	type = sea
	skill = 0
	max_skill = 0
	loyalty = 0.67
	picture = l61047
	add_trait = seawolf
	history = {
		1930.1.1 = { rank = 1 }
	}
}
18246 = {
	name = "Mustaba Rafiq"
	country = XYM
	type = land
	skill = 2
	max_skill = 2
	loyalty = 0.65
	picture = l290011
	add_trait = swamp_fox
	history = {
		1930.1.1 = { rank = 1 }
		1954.1.1 = { rank = 2 }
	}
}
18247 = {
	name = "Unais Miah"
	country = XYM
	type = air
	skill = 1
	max_skill = 2
	loyalty = 0.51
	picture = l61021
	add_trait = fleet_destroyer
	history = {
		1930.1.1 = { rank = 1 }
		1944.1.1 = { rank = 2 }
	}
}
18248 = {
	name = "Abdul Qayyoom Habeeb"
	country = XYM
	type = land
	skill = 1
	max_skill = 1
	loyalty = 0.46
	picture = l440009
	add_trait = versatile
	history = {
		1930.1.1 = { rank = 1 }
		1937.1.1 = { rank = 2 }
	}
}
18249 = {
	name = "Haajid Hamed"
	country = XYM
	type = air
	skill = 2
	max_skill = 2
	loyalty = 0.4
	picture = l290019
	add_trait = old_guard
	history = {
		1930.1.1 = { rank = 1 }
	}
}
18250 = {
	name = "Mutammam Tahir"
	country = XYM
	type = sea
	skill = 1
	max_skill = 2
	loyalty = 0.28
	picture = l300019
	add_trait = superior_tactician
	history = {
		1930.1.1 = { rank = 1 }
		1942.1.1 = { rank = 2 }
	}
}
18251 = {
	name = "Taaha Rehmann"
	country = XYM
	type = land
	skill = 2
	max_skill = 2
	loyalty = 0.03
	picture = l440034
	add_trait = urban_assault_specialist
	history = {
		1930.1.1 = { rank = 1 }
	}
}
18252 = {
	name = "Faatin Bey"
	country = XYM
	type = land
	skill = 1
	max_skill = 2
	loyalty = 0.67
	picture = l290015
	add_trait = old_guard
	history = {
		1930.1.1 = { rank = 1 }
		1937.1.1 = { rank = 2 }
	}
}
18253 = {
	name = "Aseel Shams"
	country = XYM
	type = land
	skill = 2
	max_skill = 2
	loyalty = 0.51
	picture = l61048
	add_trait = old_guard
	add_trait = commando
	history = {
		1930.1.1 = { rank = 1 }
	}
}
18254 = {
	name = "Haatim Amir"
	country = XYM
	type = land
	skill = 2
	max_skill = 2
	loyalty = 0.82
	picture = l61029
	add_trait = frontline_soldier
	history = {
		1930.1.1 = { rank = 1 }
	}
}
18255 = {
	name = "Jawaad Hasen"
	country = XYM
	type = air
	skill = 2
	max_skill = 2
	loyalty = 0.07
	picture = l290005
	add_trait = fleet_destroyer
	add_trait = carpet_bomber
	history = {
		1930.1.1 = { rank = 1 }
		1941.1.1 = { rank = 2 }
	}
}
18256 = {
	name = "Jawaad Wahab"
	country = XYM
	type = land
	skill = 1
	max_skill = 1
	loyalty = 0.66
	picture = l440025
	add_trait = fortress_buster
	add_trait = ranger
	history = {
		1930.1.1 = { rank = 1 }
		1948.1.1 = { rank = 2 }
	}
}
18257 = {
	name = "Aasim Asad"
	country = XYM
	type = air
	skill = 1
	max_skill = 2
	loyalty = 0.21
	picture = l61042
	add_trait = carpet_bomber
	add_trait = superior_air_tactician
	history = {
		1930.1.1 = { rank = 1 }
	}
}
18258 = {
	name = "Shawqi Arshad"
	country = XYM
	type = land
	skill = 1
	max_skill = 1
	loyalty = 0.38
	picture = l320001
	add_trait = trainer
	history = {
		1930.1.1 = { rank = 1 }
	}
}
18259 = {
	name = "Ayyoob Shaikh"
	country = XYM
	type = sea
	skill = 0
	max_skill = 1
	loyalty = 0.18
	picture = l61049
	add_trait = blockade_runner
	add_trait = spotter
	history = {
		1930.1.1 = { rank = 1 }
	}
}
18260 = {
	name = "Zaid Sadri"
	country = XYM
	type = sea
	skill = 2
	max_skill = 2
	loyalty = 0.57
	picture = l440023
	add_trait = spotter
	add_trait = seawolf
	history = {
		1930.1.1 = { rank = 1 }
	}
}
18261 = {
	name = "Muneef Farooqui"
	country = XYM
	type = land
	skill = 2
	max_skill = 2
	loyalty = 0.88
	picture = l300020
	add_trait = landing_specialist
	history = {
		1930.1.1 = { rank = 1 }
	}
}
18262 = {
	name = "Kaalim Sinai"
	country = XYM
	type = land
	skill = 2
	max_skill = 2
	loyalty = 0.85
	picture = l440035
	add_trait = ranger
	add_trait = fortress_buster
	history = {
		1930.1.1 = { rank = 1 }
	}
}
18263 = {
	name = "Aabid Salahuddin"
	country = XYM
	type = sea
	skill = 0
	max_skill = 1
	loyalty = 0.96
	picture = l61023
	add_trait = old_guard
	history = {
		1930.1.1 = { rank = 1 }
	}
}
18264 = {
	name = "Aamir Naqvi"
	country = XYM
	type = air
	skill = 1
	max_skill = 1
	loyalty = 0.88
	picture = l300015
	add_trait = carpet_bomber
	add_trait = tank_buster
	history = {
		1930.1.1 = { rank = 1 }
		1939.1.1 = { rank = 2 }
	}
}
18265 = {
	name = "Aatif Moustafa"
	country = XYM
	type = air
	skill = 1
	max_skill = 2
	loyalty = 0.02
	picture = l61045
	add_trait = carpet_bomber
	history = {
		1930.1.1 = { rank = 1 }
	}
}
18266 = {
	name = "Talaal Jaber"
	country = XYM
	type = sea
	skill = 2
	max_skill = 2
	loyalty = 0.83
	picture = l440026
	add_trait = blockade_runner
	history = {
		1930.1.1 = { rank = 1 }
	}
}
18267 = {
	name = "Fahmi Zia"
	country = XYM
	type = land
	skill = 2
	max_skill = 2
	loyalty = 0.3
	picture = l290009
	add_trait = old_guard
	add_trait = landing_specialist
	history = {
		1930.1.1 = { rank = 1 }
	}
}
18268 = {
	name = "Mubashshir Shakir"
	country = XYM
	type = land
	skill = 0
	max_skill = 1
	loyalty = 0.65
	picture = l300007
	add_trait = old_guard
	history = {
		1930.1.1 = { rank = 1 }
		1945.1.1 = { rank = 2 }
	}
}
18269 = {
	name = "Faraj Meer"
	country = XYM
	type = land
	skill = 1
	max_skill = 2
	loyalty = 0.59
	picture = l440002
	add_trait = old_guard
	add_trait = ranger
	history = {
		1930.1.1 = { rank = 1 }
	}
}
18270 = {
	name = "Ibrahim Abdullah"
	country = XYM
	type = land
	skill = 0
	max_skill = 2
	loyalty = 0.21
	picture = l290026
	add_trait = hard_defender
	add_trait = frontline_soldier
	history = {
		1930.1.1 = { rank = 1 }
	}
}
18271 = {
	name = "Sadi Jamail"
	country = XYM
	type = sea
	skill = 1
	max_skill = 1
	loyalty = 0.88
	picture = l440029
	add_trait = superior_tactician
	history = {
		1930.1.1 = { rank = 1 }
	}
}
18272 = {
	name = "Humaidaan Idris"
	country = XYM
	type = sea
	skill = 2
	max_skill = 2
	loyalty = 0.37
	picture = l440032
	add_trait = spotter
	add_trait = superior_tactician
	history = {
		1930.1.1 = { rank = 1 }
		1950.1.1 = { rank = 2 }
	}
}
18273 = {
	name = "Naaif Amen"
	country = XYM
	type = sea
	skill = 1
	max_skill = 2
	loyalty = 0.64
	picture = l290012
	add_trait = blockade_runner
	add_trait = superior_tactician
	history = {
		1930.1.1 = { rank = 1 }
	}
}
18274 = {
	name = "Ahmed Saah"
	country = XYM
	type = sea
	skill = 2
	max_skill = 2
	loyalty = 0.93
	picture = l61059
	add_trait = blockade_runner
	history = {
		1930.1.1 = { rank = 1 }
	}
}
18275 = {
	name = "Bishr Hafeez"
	country = XYM
	type = sea
	skill = 0
	max_skill = 0
	loyalty = 0.54
	picture = l440007
	add_trait = spotter
	history = {
		1930.1.1 = { rank = 1 }
	}
}
18276 = {
	name = "Shaakir Emami"
	country = XYM
	type = air
	skill = 0
	max_skill = 0
	loyalty = 0.17
	picture = l61010
	add_trait = night_flyer
	history = {
		1930.1.1 = { rank = 1 }
	}
}
18277 = {
	name = "Jameel Shaikh"
	country = XYM
	type = air
	skill = 2
	max_skill = 2
	loyalty = 0.46
	picture = l61046
	add_trait = fleet_destroyer
	add_trait = carpet_bomber
	history = {
		1930.1.1 = { rank = 1 }
	}
}
18278 = {
	name = "Najeem Mahdi"
	country = XYM
	type = air
	skill = 0
	max_skill = 0
	loyalty = 0.17
	picture = l61052
	add_trait = fleet_destroyer
	add_trait = carpet_bomber
	history = {
		1930.1.1 = { rank = 1 }
		1945.1.1 = { rank = 2 }
	}
}
18279 = {
	name = "Shaafi Hariri"
	country = XYM
	type = sea
	skill = 0
	max_skill = 0
	loyalty = 0.09
	picture = l440037
	add_trait = blockade_runner
	history = {
		1930.1.1 = { rank = 1 }
		1947.1.1 = { rank = 2 }
	}
}
18280 = {
	name = "Azmi Ayub"
	country = XYM
	type = sea
	skill = 1
	max_skill = 1
	loyalty = 0.44
	picture = l61006
	add_trait = seawolf
	history = {
		1930.1.1 = { rank = 1 }
	}
}
18281 = {
	name = "Haitham Madani"
	country = XYM
	type = sea
	skill = 0
	max_skill = 0
	loyalty = 0.69
	picture = l290026
	add_trait = old_guard
	history = {
		1930.1.1 = { rank = 1 }
		1954.1.1 = { rank = 2 }
	}
}
18282 = {
	name = "Faaiq Masri"
	country = XYM
	type = sea
	skill = 0
	max_skill = 2
	loyalty = 0.8
	picture = l61042
	add_trait = superior_tactician
	history = {
		1930.1.1 = { rank = 1 }
		1953.1.1 = { rank = 2 }
	}
}
18283 = {
	name = "Muslim Nasir"
	country = XYM
	type = air
	skill = 1
	max_skill = 2
	loyalty = 0.54
	picture = l300000
	add_trait = fleet_destroyer
	history = {
		1930.1.1 = { rank = 1 }
	}
}
18284 = {
	name = "Zaghlool Kazi"
	country = XYM
	type = air
	skill = 0
	max_skill = 2
	loyalty = 0.63
	picture = l61033
	add_trait = superior_air_tactician
	add_trait = tank_buster
	history = {
		1930.1.1 = { rank = 1 }
	}
}
18285 = {
	name = "Adham Nasr"
	country = XYM
	type = land
	skill = 1
	max_skill = 2
	loyalty = 0.14
	picture = l300024
	add_trait = learners_will
	history = {
		1930.1.1 = { rank = 1 }
	}
}
18286 = {
	name = "Siraaj Nasir"
	country = XYM
	type = sea
	skill = 0
	max_skill = 0
	loyalty = 0.8
	picture = l290003
	add_trait = blockade_runner
	history = {
		1930.1.1 = { rank = 1 }
		1944.1.1 = { rank = 2 }
	}
}