militia_brigade = {
	type = land
	sprite = Infantry
	active = yes
	is_buildable = yes

	available_trigger = {
		not = { has_country_flag =  colonial_units }
	}
	
	#Size Definitions
	max_strength = 30
	default_organisation = 20
	default_morale = 0.15
	officers = 15
	unit_group = infantry_unit_type 

	#Building Costs
	build_cost_ic = 1.30
	build_cost_manpower = 2.50
	build_time = 77
	repair_cost_multiplier = 0.01

	#Misc Abilities
	maximum_speed = 2.00
	transport_weight = 25.00
	supply_consumption = 0.10
	fuel_consumption = 0.00
	radio_strength = 1

	#Defensive Abilities
	defensiveness = 3	# was 4.33
	toughness = 0.5
	softness = 1
	air_defence = 3.00

	#Offensive Abilities
	suppression = 0.5
	soft_attack = 0.5
	hard_attack = 0.00
	air_attack = 2.00
	
	plains = {
		attack = -0.2
		defence = -0.2
		movement = -0.2
	}
	river = {
		attack = -0.1
		defence = 0.05
		movement = -0.25
	}
	amphibious = { 
		attack = 0.1
		defence = 0.1	
	}
	urban = { 
		attack = 0.45
		defence = 0.25 					
		movement = -0.1
	}
	arctic = {
		attack = 0.05		
		defence = 0.05 					
		movement = -0.15	
	}
	desert = {
		attack = -0.15
		defence = 0.1
		movement = -0.15
	}
	woods = { 
		attack = 0.15
		defence = 0.2
		movement = -0.2
	}
	forest = { 
		attack = 0.2
		defence = 0.3
		movement = -0.2
	}
	jungle = { 
		attack = 0.2
		defence = 0.3
		movement = -0.2
	}
	hills = {
		attack = 0.15
		defence = 0.1
		movement = -0.15
	}
	mountain = { 
		attack = 0.15
		defence = 0.2
		movement = -0.2
	}
	marsh = { 
		attack = 0.25
		defence = 0.35 
		movement = -0.3
	}
	night = {
	}
	fort = {
	}
	
	combat_width = 1

	completion_size = 0.1
	on_completion = militia_practical
	
	priority = 45
}
