# diplomatic_decisions = {	
	# return_territory_iss_1 = { #start of game

		# potential = {
			# not = {exists = ISS}
			# ai = yes
			# not = {has_global_flag = NO_ISS}
	   # }

		# allow = {
			# ai = yes
		# }

		# effect = {
			
			# SYR = {
				# any_owned = {
					# limit = {is_core = IRQ}
					
				# }
			# }
			
		# }
	# }
# }